vhdl lib_cdc_v1_0_2 "../../../../../bd/design_1/ip/design_1_rst_processing_system7_0_100M_0/lib_cdc_v1_0_2/hdl/src/vhdl/cdc_sync.vhd" 
vhdl proc_sys_reset_v5_0_9 "../../../../../bd/design_1/ip/design_1_rst_processing_system7_0_100M_0/proc_sys_reset_v5_0_9/hdl/src/vhdl/upcnt_n.vhd" 
vhdl proc_sys_reset_v5_0_9 "../../../../../bd/design_1/ip/design_1_rst_processing_system7_0_100M_0/proc_sys_reset_v5_0_9/hdl/src/vhdl/sequence_psr.vhd" 
vhdl proc_sys_reset_v5_0_9 "../../../../../bd/design_1/ip/design_1_rst_processing_system7_0_100M_0/proc_sys_reset_v5_0_9/hdl/src/vhdl/lpf.vhd" 
vhdl proc_sys_reset_v5_0_9 "../../../../../bd/design_1/ip/design_1_rst_processing_system7_0_100M_0/proc_sys_reset_v5_0_9/hdl/src/vhdl/proc_sys_reset.vhd" 
vhdl xil_defaultlib "../../../bd/design_1/ip/design_1_rst_processing_system7_0_100M_0/sim/design_1_rst_processing_system7_0_100M_0.vhd" 
vhdl fifo_generator_v13_1_0 "../../../../../bd/design_1/ip/design_1_xbar_0/fifo_generator_v13_1_0/hdl/fifo_generator_v13_1_rfs.vhd" 
vhdl xil_defaultlib "../../../bd/design_1/hdl/design_1.vhd" 
vhdl xil_defaultlib "../../../../../bd/design_1/ip/design_1_neural_dma_1_0/src/dma_common.vhd" 
vhdl xil_defaultlib "../../../../../bd/design_1/ip/design_1_neural_dma_1_0/src/dma_read.vhd" 
vhdl xil_defaultlib "../../../../../bd/design_1/ip/design_1_neural_dma_1_0/src/core.vhd" 
vhdl xil_defaultlib "../../../../../bd/design_1/ip/design_1_neural_dma_1_0/src/fifo.vhd" 
vhdl xil_defaultlib "../../../../../bd/design_1/ip/design_1_neural_dma_1_0/src/dma_write.vhd" 
vhdl xil_defaultlib "../../../../../bd/design_1/ip/design_1_neural_dma_1_0/src/top.vhd" 
vhdl xil_defaultlib "../../../bd/design_1/ip/design_1_neural_dma_1_0/sim/design_1_neural_dma_1_0.vhd" 

nosort
